index.utf8.md
…
data(stop_words)
tidy_df <- text_df %>%
  anti_join(stop_words)

tidy_numbers <- text_df %>%
  filter(!is.na(as.numeric(word)))

tidy_df <- tidy_df %>%
  anti_join(tidy_numbers)
  
word_count <- tidy_df %>%
  count(word, sort = TRUE) 
word_count

## # A tibble: 10,779 x 2
##    word              n
##    <chr>         <int>
##  1 president      1941
##  2 trump          1466
##  3 campaign        860
##  4 u.s             847
##  5 russian         785
##  6 cohen           764
##  7 justice         710
##  8 russia          676
##  9 investigation   632
## 10 flynn           602
## #  with 10,769 more rows
…
